149.665644594600    -216.830322298958
17629.8122351171    17740.9701653559
-2.00000000000000    0.00000000000000
33240.3633845693    -43227.6604286735
229.781730200279    83.5956339066557
-35.4580628638151    -303.897325568267
-229.781730200279    -83.5956339066557
-33240.3633845692    43227.6604286735
-149.665644594600    216.830322298958
92.5618537292078    43.5335016346548
35.4580628638151    303.897325568267
-1.00000000000000    0.00000000000000
84.3370436257341    164.880602128881
2.00000000000000    0.00000000000000
28501.5201132119    64145.5080536052
130376.504702459    -80139.2378610096
114.207581730785    -520.727647867225
-84.3370436257341    -164.880602128881
-130376.504702459    80139.2378610096
-314.118773826013    -248.476236035537
199.227908725874    206.678419082209
314.118773826013    248.476236035537
-218.437093899653    110.301720008264
-94300.2823554046    62138.1550834574
161546.938725302    185814.572219484
332.644675630438    -631.029367875489
-161546.938725302    -185814.572219484
218.437093899653    -110.301720008264
-275.540884765046    370.665543941877
-332.644675630438    631.029367875489
208.109223531883    -199.017565878868
87362.4037947855    -9124.82876866414
-44979.6110347794    -186150.763739366
-208.109223531883    199.017565878868
44979.6110347794    186150.763739366
-437.890953732162    115.421931972212
323.000088632023    -157.219748925540
437.890953732162    -115.421931972212
198.772224380558    440.023635762026
-46803.7943052828    338806.452535591
-50480.4341966207    39864.8729744420
693.049726537040    479.055439395424
-167.154838813925    -284.763541538774
-693.049726537040    -479.055439395424
50480.4341966207    -39864.8729744420
-198.772224380558    -440.023635762026
182.963531597241    362.393588650400
167.154838813925    284.763541538774
-409.018669705123    -465.216008398003
64805.8868485731    -186351.204668329
33064.4941950591    -16838.4679174273
31.6173855666328    155.260094223252
409.018669705123    465.216008398003
-33064.4941950591    16838.4679174273
-284.031056831917    -13.8394309974206
-62.4938064366029    -225.688288700291
284.031056831917    13.8394309974206
-70.4868518293550    -18.5845155434145
-13714.9940062280    -108021.826379247
12209.8425567691    -16440.3073121995
102.104237395988    173.844609766666
-12209.8425567691    16440.3073121995
70.4868518293550    18.5845155434145
-86.2955446126714    -96.2145626550403
-102.104237395988    -173.844609766666
-94.9875027132005    -390.071009791127
246446.480930447    16166.3547539661
31326.3191176727    34293.9290531339
94.9875027132005    390.071009791127
-31326.3191176727    -34293.9290531339
-598.062223823839    -88.9844296042967
251.537360555319    -150.543290093415
598.062223823839    88.9844296042967
-94.9017413225013    -53.1369363073608
-74681.5067983892    20583.7816079497
64228.8227192074    3374.75073373964
267.190483989456    422.426432384759
-4.76976238398396    -349.710722691919
-267.190483989456    -422.426432384759
-64228.8227192074    -3374.75073373964
94.9017413225013    53.1369363073608
-45.0659894692587    148.286893192279
4.76976238398396    349.710722691919
132.054167084510    -116.019664185024
30766.7216228943    137652.143375983
11870.8235163226    -116504.327033848
-99.6715037064853    -402.847658999280
-132.054167084510    116.019664185024
-11870.8235163226    116504.327033848
-399.244651073966    -306.406768199735
265.649409079238    95.1935520073558
399.244651073966    306.406768199735
112.532837066995    153.188268646346
-106414.181642000    163337.761881066
126671.132178553    -100754.526996256
-212.204340773480    -556.035927645626
-126671.132178553    100754.526996256
-112.532837066995    -153.188268646346
162.368588920237    354.612098145986
212.204340773480    556.035927645626
-101.130974432197    -453.900370561672
111191.612168226    -51129.9335075308
-101001.714371554    11110.8394175433
101.130974432197    453.900370561672
101001.714371554    -11110.8394175433
-166.059509557260    31.4739381769133
32.4642675625315    -242.687154369293
166.059509557260    -31.4739381769133
218.372970824411    -96.2945413794409
-108002.947487767    26537.0718624585
137607.458192546    129231.493503889
165.893274956199    450.747439034314
270.003700769705    -556.509478021019
-165.893274956199    -450.747439034314
-137607.458192546    -129231.493503889
-218.372970824411    96.2945413794409
-25.8153649726473    230.107468320789
-270.003700769705    556.509478021019
-12.6484617029080    -209.488660089094
4501.84474668570    34321.9472308467
44701.8197472807    -38133.0392510128
488.376671594116    -652.804019400460
12.6484617029080    209.488660089094
-44701.8197472807    38133.0392510128
-153.244813253291    -241.258778945220
70.2981757751913    15.8850594280630
153.244813253291    241.258778945220
337.973210286271    -350.847780425263
26577.1485199002    38217.9030317631
29844.0474622699    -73161.8871667704
150.403461307845    -301.956238975197
-29844.0474622699    73161.8871667704
-337.973210286271    350.847780425263
93.7848744892128    -24.4457707250331
-150.403461307845    301.956238975197
-113.088308510765    -358.833603521588
55156.4004085524    -35726.3782589580
-101843.637682029    -45502.0899398501
113.088308510765    358.833603521588
101843.637682029    45502.0899398501
-52.8049664454340    -91.9138355127267
-30.1416710326653    -133.459884004430
52.8049664454340    91.9138355127267