250.0   0.0
250.0   0.0
-507.3505195586031   0.0
573.1407477802086   0.0
15.287902571030457   0.0
604.5918875043407   0.0
614.5498905789943   0.0
620.9704800196268   0.0
-450.22784949400193   0.0
288.854132476627   0.0
245.44536477975743   0.0
642.9830038950106   0.0
859.6433774996502   0.0
721.9131003529747   0.0
-533.3624861464104   0.0
513.3244175091589   0.0
68.29252067083598   0.0
585.4241342884445   0.0
666.9476259346508   0.0
617.3136648198795   0.0
-411.97641395159485   0.0
651.8654270233787   0.0
-43.4994702575741   0.0
610.5526835166356   0.0
564.814048928472   0.0
691.0589039413429   0.0