            0.789139	           -0.614215
           -0.518860	           -0.854859
            0.474398	            0.880311
           -0.793824	           -0.608148
            0.302965	            0.953002
           -0.149631	           -0.988742
           -0.038738	           -0.999249
            0.325730	            0.945463
            0.995249	           -0.097365
           -0.044642	            0.999003
           -0.872941	            0.487825
            0.241196	           -0.970476
            0.256052	           -0.966663
            0.993760	           -0.111536
            0.185430	            0.982657
            0.222963	           -0.974827
            0.123935	           -0.992290
            0.915049	           -0.403343
           -0.888165	            0.459525
           -0.778198	            0.628019
            0.133959	            0.990987
           -0.737245	           -0.675626
           -0.922734	           -0.385438
            0.728696	           -0.684837
            0.998214	            0.059742
            0.507158	            0.861853
           -0.743057	            0.669228
            0.959946	           -0.280185
            0.984055	            0.177863
            0.273595	            0.961845
            0.730098	            0.683343
           -0.416941	            0.908934
            0.613201	            0.789927
            0.078597	            0.996906
           -0.675207	            0.737628
            0.280085	           -0.959975
            0.130312	            0.991473
            0.141438	           -0.989947
            0.999940	           -0.010994
           -0.773055	           -0.634338
            0.198969	            0.980006
            0.016031	            0.999871
            0.999932	            0.011646
           -0.998780	           -0.049380
            0.002860	           -0.999996
           -0.951088	           -0.308921
            0.999876	           -0.015745
           -0.615040	            0.788496
           -0.984998	           -0.172565
           -0.912002	           -0.410186
           -0.999063	            0.043280
           -0.284028	            0.958816
           -0.081373	           -0.996684
            0.541225	           -0.840878
           -0.321554	            0.946891
            0.068592	            0.997645
