-1.005210	1.793860
-0.961486	-0.377699
1.671790	1.214210
-0.364962	0.949600
1.023590	0.796506
0.585836	-0.615031
-0.273871	-0.066383
-1.120060	-0.760830
-0.069911	-0.068050
-0.574173	0.680510
-0.152277	-0.188855
0.052802	0.741812
-0.162076	0.023418
-0.349175	0.364470
0.103255	-0.127933
0.267303	0.782132
0.831658	-1.530800
-1.065370	-0.422779
-0.880768	-0.037063
-0.813336	-1.270480
-0.038851	1.126420
0.558240	0.312306
-0.936340	0.163315
2.391120	-0.793285
-0.030512	-0.334440
-1.140320	0.262614
-0.588390	0.973099
-2.306010	-1.039070
0.000970	-0.171945
-0.013369	0.455765
0.102285	0.026175
-0.692625	0.657054
-0.783694	0.828618
-1.039310	-0.759658
-0.326365	-1.082960
-0.397667	0.629401
-0.801027	0.064288
-0.404060	-0.088413
-0.242806	-0.146175
0.484296	-0.160063
-0.227221	-0.022930
0.442305	0.025731
-0.336653	0.036415
0.093702	-0.185118
0.249937	0.404605
-1.619630	0.434656
-0.301490	0.078330
0.405869	-0.097284
-0.569591	0.939001
-0.265807	-0.517798
-0.798803	0.277010
0.765730	1.125430
-1.610500	-1.449760
-1.137390	-0.015347
0.313249	-0.372580
-0.193611	0.903220
0.361353	-0.580819
-0.283586	0.569566
0.073274	-0.593589
0.091677	0.894544
0.373409	0.096562
-0.938787	0.332715
0.061517	-0.675611
-0.122962	0.822837
-0.104863	1.573940
-0.157607	-0.038048
0.015615	-1.226550
1.769240	0.238233
1.122660	-1.313390
-2.541640	-0.595747
-1.305300	-1.341280
-0.794753	4.215580
0.195514	-0.529691
0.802727	2.637070
0.100210	-0.108083
-1.334680	0.909835
-0.438511	0.234539
0.797760	0.069315
0.602039	0.431958
-3.374100	-0.940855
-1.268750	1.719710
-1.166140	-1.385020
-0.896594	-0.536625
-0.822456	-0.399915
-0.206346	0.823463
0.566230	-0.046642
-0.198865	-0.066323
0.723112	-0.857445
-0.064358	0.043707
-0.803161	-0.187747
-2.994070	-1.156840
4.380090	-2.294870
0.109487	-0.069880
-0.178602	0.939938
-0.047981	-0.048327
-0.187927	0.758424
-0.475481	0.389649
-0.311958	-1.046100
0.440955	-1.100540
-1.151580	-0.510177
-1.033160	-0.920170
0.308110	-1.453760
-0.200948	-0.003200
0.153084	0.953860
-0.358377	0.605424
0.669495	0.051315
-0.116390	0.733665
0.211601	-1.195740
-0.104016	0.219846
-1.037670	-0.192506
-0.154432	1.050650
1.327430	-1.366520
-0.334659	-0.505787
-1.238760	-0.313999
0.209495	-1.502980
-0.222043	0.000380
-0.965918	0.804199
2.700720	-0.936939
1.570020	2.779540
-5.266270	-3.765890
0.027627	-0.743708
-2.384460	2.003500
-0.476864	0.972340
-0.101262	-0.338514
0.053328	-0.509230
-0.906599	0.983146
-0.689237	0.459401
-0.147414	0.507209
0.471557	0.542794
-0.263960	-0.013184
-0.470640	0.581818
-0.282235	-0.912978
0.494235	1.491210
-0.328318	-1.418970
1.232330	0.723122
-1.302360	0.876197
-0.128152	-0.527698
-1.006780	0.994413
1.207400	-1.794380
-3.022020	-0.504038
-0.529178	0.920138
-0.579470	0.946052
-0.098156	-0.709898
-0.417273	0.952340
-0.157987	0.531087
-0.414927	-0.723603
0.427776	0.823075
0.677826	-0.479686
0.952475	0.153133
-0.661882	-0.286884
-0.672348	-1.150350
1.556890	0.466055
-0.298083	-0.049424
0.386011	0.412388
-0.315359	-0.091622
-0.664521	0.624346
-0.518956	0.199279
0.009086	-0.123497
-0.360720	0.052318
0.384169	0.060062
0.188033	1.408410
-0.119155	-0.229353
0.029227	-0.550151
-1.189790	0.027560
1.398930	-0.659280
0.692845	0.802214
0.107071	0.322302
-1.433460	-0.212356
-0.330523	-0.487482
-0.123146	0.867381
-0.193011	-0.471991
-0.253576	0.809325
-1.826380	0.580095
-0.799091	-2.556770
-1.472900	0.826377
2.329220	-0.686981
-0.833851	-0.554184
-1.392380	-1.583090
1.123670	-1.551020
-0.969841	0.701396
-0.902315	1.166720
-1.387490	0.093432
-0.631676	-0.008121
3.285040	-1.682750
0.067318	0.257059
0.957801	-0.761427
0.304974	0.476959
-1.801630	-0.017661
0.188445	0.057900
-0.737954	0.768801
0.363770	-0.062124
-0.745638	-0.393953
0.401256	1.243880
-0.697404	0.436636
0.703629	-0.254581
0.380607	0.598553
1.472570	-0.485822
-0.007464	-0.845972
0.088847	-0.660687
-1.765890	0.233098
0.673018	-0.452727
-0.656799	1.600120
0.558353	0.851074
-1.755980	0.356830
-0.643522	0.019594
0.182888	0.098707
0.775599	0.322238
-0.330561	-0.056209
-0.185133	0.789845
0.640643	1.222570
1.047130	0.472896
-0.923756	0.962272
0.843661	-0.331353
0.529335	0.149463
-0.410486	-0.372732
-0.258299	2.068990
-0.497284	-0.244313
0.657303	0.153562
-0.215707	-0.145068
0.147674	-0.091257
-0.162596	-0.001241
0.254668	-0.180085
-0.390932	0.491865
-0.741207	-0.040219
-0.114295	1.169590
-0.728768	-0.302085
-0.297612	-0.074879
-0.339614	-0.396123
-1.234020	-0.632161
-2.822280	2.840960
0.752752	-6.851000
9.384770	4.268430
-0.939801	-1.271370
2.249690	-1.073970
0.491673	-2.022030
-0.782849	2.605680
0.680649	3.802210
-3.748820	1.461440
-0.663704	0.552720
-1.226930	-1.985160
-0.776876	-0.161635
-0.671624	-1.191890
0.683609	-0.972423
-0.128358	0.140440
-1.732050	0.578376
0.148486	0.131949
-1.448680	0.494857
2.886790	-1.187450
-0.033772	0.568430
0.533042	-1.258650
0.507665	1.396040
-0.886731	-2.053090
0.245467	-0.188270
-1.287200	0.782654
0.440214	0.301393
-1.125420	-0.517830
0.752415	0.839234
-0.122632	-0.161900
-0.299207	0.666038
-0.306409	0.681239
0.819403	1.485640
-0.064334	-1.265260
0.908802	-0.329787
-1.028280	-0.305934
-0.002337	0.915127
-0.487151	-0.084847
0.173788	0.781127
-0.508737	-1.049490
-0.740168	0.170099
0.479542	1.278080
1.031360	-1.046100
0.426451	1.164460
0.279830	1.231420
0.448400	-0.203158
0.566282	0.039691
-0.310830	0.105144
1.054910	-0.500962
1.076760	-0.229483
1.129400	-0.453435
-1.900160	1.242290
-0.767296	-0.335589
0.303195	0.681085
-0.571688	-0.352330
-0.397273	0.338537
-0.991348	-0.159818
0.078542	-0.618359
-0.906475	3.101720
0.640706	-0.302034
0.380857	-1.106830
0.844227	1.155090
0.882062	-0.258099
0.399179	-0.207089
-0.354208	0.650817
-0.161957	0.514293
-0.075054	-0.387787
0.866873	0.360803
-0.315941	-0.005141
-0.281861	-0.349754
-0.645447	0.856454
-0.339634	-0.296428
0.370248	0.098412
-0.382027	0.770548
-0.086953	-0.013481
-0.488486	0.210754
-0.020419	-0.039337
-0.610929	0.663228
-0.931782	-0.746242
0.045056	-1.057940
-0.619164	0.032990
0.898872	-0.004155
-0.304385	0.173948
-0.086657	-0.388432
0.458443	-0.178428
-0.742465	0.265946
-0.259142	-0.228268
-0.028528	0.367878
-0.354307	-0.128269
-0.393503	-0.296174
-0.063993	-0.350481
-0.578394	0.341177
0.030045	1.035360
-0.655599	-0.822578
0.779311	-0.412621
0.100954	-0.054903
0.287263	2.555420
1.463540	-1.598540
4.305540	-0.309551
-2.051980	2.839660
0.246486	0.201911
-1.992020	0.529254
1.776860	2.515490
-4.136740	-4.344680
-0.445717	-1.062110
0.003126	1.922170
0.626790	-1.011300
-1.125000	2.734670
0.271583	-0.430621
-0.325637	0.224990
0.199572	0.783854
0.425558	0.651064
0.571090	1.148970
0.576042	-0.395300
-0.122101	0.617414
-0.608167	-0.954152
-0.525753	-0.015187
-0.072273	0.432266
-0.467713	-0.134004
-0.214190	-0.019516
-0.545667	-0.117758
0.400939	-0.111926
-1.261170	0.806882
1.695960	0.476153
-0.177971	0.252022
0.120448	0.107569
0.802246	-0.525722
0.563532	1.236740
-0.426830	1.006440
3.476240	-6.391710
1.081580	4.179470
-4.841100	0.005503
1.819310	-1.420630
-3.861970	1.890630
1.248150	-1.979110
-1.289160	-2.009590
-1.832020	0.417155
-2.796490	0.060075
1.902170	-2.713530
-4.609240	2.219390
0.196920	0.127775
0.019874	0.238587
-0.010140	0.692222
0.323224	0.681886
1.169590	1.344920
0.843535	-0.891141
0.515588	1.087360
-1.245720	-1.605650
-0.643379	0.818181
-0.143292	-0.227108
-0.875764	0.459831
0.102578	-0.536829
-0.754924	-0.109539
0.589984	0.194166
22.787000	-3.360650
-20.052800	0.628330
-0.578213	-0.917560
-0.720934	0.664487
0.166189	0.353807
0.212460	0.625968
2.648350	2.325420
1.140750	-2.818970
-2.022420	4.874610
-4.985890	-1.021880
-2.770070	-2.258240
3.669550	3.422730
-0.698692	-0.567482
-1.956760	-0.157197
-1.573110	1.153990
-1.595910	0.299799
-1.425050	-0.187004
1.985360	2.236960
-0.346127	-0.491048
0.572069	-0.311760
-0.063835	-0.323811
0.238452	0.968744
0.770718	1.213590
1.349250	-1.034040
0.365542	0.689634
-1.232260	-0.084163
0.007912	0.537356
-1.022620	0.507058
-1.194260	1.177870
1.311090	-0.975393
-0.641520	1.058590
-0.720217	0.252799
0.485321	-0.397649
-0.406742	1.063630
-0.026508	0.921581
-0.802058	-0.576265
0.206959	-0.620105
0.262542	-0.251946
1.850180	-0.260530
-0.963415	-1.793830
1.455670	-2.078690
-0.939378	2.621490
0.285268	-0.428737
-0.188850	2.142840
0.545520	0.420053
-2.057680	-0.080244
-1.174910	0.018579
1.221200	-0.420056
-1.334540	-0.829035
3.391450	0.575872
-0.216242	-1.002200
-0.675728	-0.933247
-0.582498	0.295703
0.756500	-0.570796
0.424058	-0.357210
0.670996	0.123031
-0.020588	1.353350
-0.485207	-3.555680
-0.458959	-0.128495
0.186070	0.463895
-0.252742	-0.228408
-0.057901	-0.149889
-0.257664	-0.025893
0.142928	-0.341331
-0.138414	0.371316
-0.081121	0.169462
0.470266	0.735494
0.523280	0.624133
-0.346938	0.344412
0.399892	-0.774454
-0.771886	-0.183480
0.732574	1.667530
-1.003040	-0.177771
1.481890	-1.088550
1.557760	1.143730
-0.859089	-2.911250
-0.140173	-0.742540
0.316861	0.840980
0.039907	-1.763350
0.593646	0.984997
0.597751	0.800247
-1.035590	0.322247
0.475556	0.775548
0.085232	-0.394789
-0.111426	0.501547
-0.103366	0.348249
0.683524	1.167260
-0.154129	-1.838640
1.881690	-0.388499
-1.826100	0.726269
-2.051310	-1.099820
1.359860	2.174070
0.089721	1.442110
-0.052137	-1.444320
-0.956056	0.171399
0.113036	0.943166
-1.258960	-2.199470
1.393100	1.276530
0.254628	1.334800
0.453311	-0.130096
0.805286	-0.042774
-0.095403	0.033250
0.865510	-0.466668
0.672864	-0.283648
0.517460	-0.369115
-1.249870	0.960064
-0.618741	-0.206468
0.155378	0.506862
-0.462767	-0.198100
-0.444164	0.179703
-0.675303	-0.386124
0.202341	-0.185241
0.872697	1.449700
0.263975	0.110472
0.156845	0.228315
-0.153355	0.643996
0.060367	0.534864
0.448293	0.611090
2.709010	1.278330
1.091040	-0.533265
1.386260	1.299200
-2.082820	-2.902580
-2.892900	1.230340
2.277670	-0.583705
-1.879350	0.642117
0.984948	-0.307227
-0.917845	-0.086787
0.988101	-0.062815
-6.990440	1.878760
8.255670	0.332060
-0.099225	-0.711456
0.638057	0.514812
-0.630809	0.397946
-0.108485	-0.877912
-0.678545	-0.801641
-0.712106	-0.930176
0.064768	-0.679079
0.296339	0.862592
-0.531125	-0.495870
0.617571	1.228210
-0.280197	-0.594296
0.067779	0.683790
0.250605	0.466805
-1.063100	0.265490
0.177060	-1.445030
-1.269760	1.660970
0.845309	1.298850
1.459220	0.186287
-0.581290	0.950279
0.449310	-1.277710
0.128403	0.237096
-0.007895	0.330376
0.016901	-0.244906
0.546339	0.187769
0.087938	0.137212
-0.425749	-0.361088
0.067204	-0.150543
-0.325231	-0.118503
0.198745	0.021754
-0.153750	0.469990
-0.007392	0.201153
-0.372344	0.744349
0.247124	-0.349583
0.458318	-0.720421
-0.345344	-0.491526
-0.579020	-0.846452
-1.996030	1.254960
0.320136	-0.710401
-3.008150	0.447332
1.717410	3.191770
1.260810	-1.367610
-1.929090	2.195110
0.684332	-1.089110
-1.167800	0.520232
0.101907	-0.233745
-0.916744	0.992350
-3.338490	-8.468980
1.157970	12.896500
1.155710	0.024870
0.615669	-1.531360
-0.900880	-0.454113
-0.660325	-1.133160
0.341996	1.105620
0.623664	-1.073600
-0.530722	-0.881872
-3.638670	0.409155
-0.000623	-0.062538
-0.840644	0.614709
0.152256	-0.125243
-1.136590	-0.310281
-0.174864	-0.024246
-0.643037	0.742355
-0.252808	-0.275384
0.160438	1.517700
-0.036796	0.574759
0.858710	-0.238846
-0.443394	-0.908286
-0.085961	-0.777165
-0.197228	1.106930
0.731486	-0.173828
-0.413943	0.293742
-0.420255	-0.602507
-0.155035	-0.380972
-0.559523	0.912539
-0.199116	-0.212115
-0.230175	-0.069369
-0.319699	-0.077946
-0.161117	-0.058907
-0.450267	0.549836
0.219035	0.288848
-0.183834	-1.184030
-0.704795	-0.040162
0.008448	0.162656
0.162430	-0.024993
0.300932	0.770430
1.098150	0.428937
-1.485900	0.489842
0.533212	-2.104280
-0.413632	-0.592410
-0.364110	0.854969
-0.365899	-0.509416
-0.280622	-0.178447
-0.528326	-0.652534
0.444065	-0.366412
-0.843117	0.607663
0.022669	0.052969
-0.469542	-0.602107
0.533718	0.192840
0.536000	-0.527992
0.140135	1.003690
0.443023	1.123600
-0.167838	-0.753015
0.797630	0.233722
-1.040900	0.767997
-0.219993	-0.244775
-0.752146	0.523371
1.102310	-1.166600
-2.122440	-0.739329
0.363172	1.472910
-0.995163	1.184790
-0.122165	-0.358635
-0.314052	0.621078
1.005210	-1.793860
0.961486	0.377699
-1.671790	-1.214210
0.364962	-0.949600
1.023590	0.796506
0.585836	-0.615031
-0.273871	-0.066383
-1.120060	-0.760830
-0.069911	-0.068050
-0.574173	0.680510
-0.152277	-0.188855
0.052802	0.741812
-0.162076	0.023418
-0.349175	0.364470
0.103255	-0.127933
0.267303	0.782132
-0.831658	1.530800
1.065370	0.422779
0.880768	0.037063
0.813336	1.270480
-0.038851	1.126420
0.558240	0.312306
-0.936340	0.163315
2.391120	-0.793285
-0.030512	-0.334440
-1.140320	0.262614
-0.588390	0.973099
-2.306010	-1.039070
0.000970	-0.171945
-0.013369	0.455765
0.102285	0.026175
-0.692625	0.657054
0.783694	-0.828618
1.039310	0.759658
0.326365	1.082960
0.397667	-0.629401
-0.801027	0.064288
-0.404060	-0.088413
-0.242806	-0.146175
0.484296	-0.160063
-0.227221	-0.022930
0.442305	0.025731
-0.336653	0.036415
0.093702	-0.185118
0.249937	0.404605
-1.619630	0.434656
-0.301490	0.078330
0.405869	-0.097284
0.569591	-0.939001
0.265807	0.517798
0.798803	-0.277010
-0.765730	-1.125430
-1.610500	-1.449760
-1.137390	-0.015347
0.313249	-0.372580
-0.193611	0.903220
0.361353	-0.580819
-0.283586	0.569566
0.073274	-0.593589
0.091677	0.894544
0.373409	0.096562
-0.938787	0.332715
0.061517	-0.675611
-0.122962	0.822837
0.104863	-1.573940
0.157607	0.038048
-0.015615	1.226550
-1.769240	-0.238233
1.122660	-1.313390
-2.541640	-0.595747
-1.305300	-1.341280
-0.794753	4.215580
0.195514	-0.529691
0.802727	2.637070
0.100210	-0.108083
-1.334680	0.909835
-0.438511	0.234539
0.797760	0.069315
0.602039	0.431958
-3.374100	-0.940855
1.268750	-1.719710
1.166140	1.385020
0.896594	0.536625
0.822456	0.399915
-0.206346	0.823463
0.566230	-0.046642
-0.198865	-0.066323
0.723112	-0.857445
-0.064358	0.043707
-0.803161	-0.187747
-2.994070	-1.156840
4.380090	-2.294870
0.109487	-0.069880
-0.178602	0.939938
-0.047981	-0.048327
-0.187927	0.758424
0.475481	-0.389649
0.311958	1.046100
-0.440955	1.100540
1.151580	0.510177
-1.033160	-0.920170
0.308110	-1.453760
-0.200948	-0.003200
0.153084	0.953860
-0.358377	0.605424
0.669495	0.051315
-0.116390	0.733665
0.211601	-1.195740
-0.104016	0.219846
-1.037670	-0.192506
-0.154432	1.050650
1.327430	-1.366520
0.334659	0.505787
1.238760	0.313999
-0.209495	1.502980
0.222043	-0.000380
-0.965918	0.804199
2.700720	-0.936939
1.570020	2.779540
-5.266270	-3.765890
0.027627	-0.743708
-2.384460	2.003500
-0.476864	0.972340
-0.101262	-0.338514
0.053328	-0.509230
-0.906599	0.983146
-0.689237	0.459401
-0.147414	0.507209
-0.471557	-0.542794
0.263960	0.013184
0.470640	-0.581818
0.282235	0.912978
0.494235	1.491210
-0.328318	-1.418970
1.232330	0.723122
-1.302360	0.876197
-0.128152	-0.527698
-1.006780	0.994413
1.207400	-1.794380
-3.022020	-0.504038
-0.529178	0.920138
-0.579470	0.946052
-0.098156	-0.709898
-0.417273	0.952340
0.157987	-0.531087
0.414927	0.723603
-0.427776	-0.823075
-0.677826	0.479686
0.952475	0.153133
-0.661882	-0.286884
-0.672348	-1.150350
1.556890	0.466055
-0.298083	-0.049424
0.386011	0.412388
-0.315359	-0.091622
-0.664521	0.624346
-0.518956	0.199279
0.009086	-0.123497
-0.360720	0.052318
0.384169	0.060062
-0.188033	-1.408410
0.119155	0.229353
-0.029227	0.550151
1.189790	-0.027560
1.398930	-0.659280
0.692845	0.802214
0.107071	0.322302
-1.433460	-0.212356
-0.330523	-0.487482
-0.123146	0.867381
-0.193011	-0.471991
-0.253576	0.809325
-1.826380	0.580095
-0.799091	-2.556770
-1.472900	0.826377
2.329220	-0.686981
0.833851	0.554184
1.392380	1.583090
-1.123670	1.551020
0.969841	-0.701396
-0.902315	1.166720
-1.387490	0.093432
-0.631676	-0.008121
3.285040	-1.682750
0.067318	0.257059
0.957801	-0.761427
0.304974	0.476959
-1.801630	-0.017661
0.188445	0.057900
-0.737954	0.768801
0.363770	-0.062124
-0.745638	-0.393953
-0.401256	-1.243880
0.697404	-0.436636
-0.703629	0.254581
-0.380607	-0.598553
1.472570	-0.485822
-0.007464	-0.845972
0.088847	-0.660687
-1.765890	0.233098
0.673018	-0.452727
-0.656799	1.600120
0.558353	0.851074
-1.755980	0.356830
-0.643522	0.019594
0.182888	0.098707
0.775599	0.322238
-0.330561	-0.056209
0.185133	-0.789845
-0.640643	-1.222570
-1.047130	-0.472896
0.923756	-0.962272
0.843661	-0.331353
0.529335	0.149463
-0.410486	-0.372732
-0.258299	2.068990
-0.497284	-0.244313
0.657303	0.153562
-0.215707	-0.145068
0.147674	-0.091257
-0.162596	-0.001241
0.254668	-0.180085
-0.390932	0.491865
-0.741207	-0.040219
0.114295	-1.169590
0.728768	0.302085
0.297612	0.074879
0.339614	0.396123
-1.234020	-0.632161
-2.822280	2.840960
0.752752	-6.851000
9.384770	4.268430
-0.939801	-1.271370
2.249690	-1.073970
0.491673	-2.022030
-0.782849	2.605680
0.680649	3.802210
-3.748820	1.461440
-0.663704	0.552720
-1.226930	-1.985160
0.776876	0.161635
0.671624	1.191890
-0.683609	0.972423
0.128358	-0.140440
-1.732050	0.578376
0.148486	0.131949
-1.448680	0.494857
2.886790	-1.187450
-0.033772	0.568430
0.533042	-1.258650
0.507665	1.396040
-0.886731	-2.053090
0.245467	-0.188270
-1.287200	0.782654
0.440214	0.301393
-1.125420	-0.517830
-0.752415	-0.839234
0.122632	0.161900
0.299207	-0.666038
0.306409	-0.681239
0.819403	1.485640
-0.064334	-1.265260
0.908802	-0.329787
-1.028280	-0.305934
-0.002337	0.915127
-0.487151	-0.084847
0.173788	0.781127
-0.508737	-1.049490
-0.740168	0.170099
0.479542	1.278080
1.031360	-1.046100
0.426451	1.164460
-0.279830	-1.231420
-0.448400	0.203158
-0.566282	-0.039691
0.310830	-0.105144
1.054910	-0.500962
1.076760	-0.229483
1.129400	-0.453435
-1.900160	1.242290
-0.767296	-0.335589
0.303195	0.681085
-0.571688	-0.352330
-0.397273	0.338537
-0.991348	-0.159818
0.078542	-0.618359
-0.906475	3.101720
0.640706	-0.302034
-0.380857	1.106830
-0.844227	-1.155090
-0.882062	0.258099
-0.399179	0.207089
-0.354208	0.650817
-0.161957	0.514293
-0.075054	-0.387787
0.866873	0.360803
-0.315941	-0.005141
-0.281861	-0.349754
-0.645447	0.856454
-0.339634	-0.296428
0.370248	0.098412
-0.382027	0.770548
-0.086953	-0.013481
-0.488486	0.210754
0.020419	0.039337
0.610929	-0.663228
0.931782	0.746242
-0.045056	1.057940
-0.619164	0.032990
0.898872	-0.004155
-0.304385	0.173948
-0.086657	-0.388432
0.458443	-0.178428
-0.742465	0.265946
-0.259142	-0.228268
-0.028528	0.367878
-0.354307	-0.128269
-0.393503	-0.296174
-0.063993	-0.350481
-0.578394	0.341177
-0.030045	-1.035360
0.655599	0.822578
-0.779311	0.412621
-0.100954	0.054903
0.287263	2.555420
1.463540	-1.598540
4.305540	-0.309551
-2.051980	2.839660
0.246486	0.201911
-1.992020	0.529254
1.776860	2.515490
-4.136740	-4.344680
-0.445717	-1.062110
0.003126	1.922170
0.626790	-1.011300
-1.125000	2.734670
-0.271583	0.430621
0.325637	-0.224990
-0.199572	-0.783854
-0.425558	-0.651064
0.571090	1.148970
0.576042	-0.395300
-0.122101	0.617414
-0.608167	-0.954152
-0.525753	-0.015187
-0.072273	0.432266
-0.467713	-0.134004
-0.214190	-0.019516
-0.545667	-0.117758
0.400939	-0.111926
-1.261170	0.806882
1.695960	0.476153
0.177971	-0.252022
-0.120448	-0.107569
-0.802246	0.525722
-0.563532	-1.236740
-0.426830	1.006440
3.476240	-6.391710
1.081580	4.179470
-4.841100	0.005503
1.819310	-1.420630
-3.861970	1.890630
1.248150	-1.979110
-1.289160	-2.009590
-1.832020	0.417155
-2.796490	0.060075
1.902170	-2.713530
-4.609240	2.219390
-0.196920	-0.127775
-0.019874	-0.238587
0.010140	-0.692222
-0.323224	-0.681886
1.169590	1.344920
0.843535	-0.891141
0.515588	1.087360
-1.245720	-1.605650
-0.643379	0.818181
-0.143292	-0.227108
-0.875764	0.459831
0.102578	-0.536829
-0.754924	-0.109539
0.589984	0.194166
22.787000	-3.360650
-20.052800	0.628330
0.578213	0.917560
0.720934	-0.664487
-0.166189	-0.353807
-0.212460	-0.625968
2.648350	2.325420
1.140750	-2.818970
-2.022420	4.874610
-4.985890	-1.021880
-2.770070	-2.258240
3.669550	3.422730
-0.698692	-0.567482
-1.956760	-0.157197
-1.573110	1.153990
-1.595910	0.299799
-1.425050	-0.187004
1.985360	2.236960
0.346127	0.491048
-0.572069	0.311760
0.063835	0.323811
-0.238452	-0.968744
0.770718	1.213590
1.349250	-1.034040
0.365542	0.689634
-1.232260	-0.084163
0.007912	0.537356
-1.022620	0.507058
-1.194260	1.177870
1.311090	-0.975393
-0.641520	1.058590
-0.720217	0.252799
0.485321	-0.397649
-0.406742	1.063630
0.026508	-0.921581
0.802058	0.576265
-0.206959	0.620105
-0.262542	0.251946
1.850180	-0.260530
-0.963415	-1.793830
1.455670	-2.078690
-0.939378	2.621490
0.285268	-0.428737
-0.188850	2.142840
0.545520	0.420053
-2.057680	-0.080244
-1.174910	0.018579
1.221200	-0.420056
-1.334540	-0.829035
3.391450	0.575872
0.216242	1.002200
0.675728	0.933247
0.582498	-0.295703
-0.756500	0.570796
0.424058	-0.357210
0.670996	0.123031
-0.020588	1.353350
-0.485207	-3.555680
-0.458959	-0.128495
0.186070	0.463895
-0.252742	-0.228408
-0.057901	-0.149889
-0.257664	-0.025893
0.142928	-0.341331
-0.138414	0.371316
-0.081121	0.169462
-0.470266	-0.735494
-0.523280	-0.624133
0.346938	-0.344412
-0.399892	0.774454
-0.771886	-0.183480
0.732574	1.667530
-1.003040	-0.177771
1.481890	-1.088550
1.557760	1.143730
-0.859089	-2.911250
-0.140173	-0.742540
0.316861	0.840980
0.039907	-1.763350
0.593646	0.984997
0.597751	0.800247
-1.035590	0.322247
-0.475556	-0.775548
-0.085232	0.394789
0.111426	-0.501547
0.103366	-0.348249
0.683524	1.167260
-0.154129	-1.838640
1.881690	-0.388499
-1.826100	0.726269
-2.051310	-1.099820
1.359860	2.174070
0.089721	1.442110
-0.052137	-1.444320
-0.956056	0.171399
0.113036	0.943166
-1.258960	-2.199470
1.393100	1.276530
-0.254628	-1.334800
-0.453311	0.130096
-0.805286	0.042774
0.095403	-0.033250
0.865510	-0.466668
0.672864	-0.283648
0.517460	-0.369115
-1.249870	0.960064
-0.618741	-0.206468
0.155378	0.506862
-0.462767	-0.198100
-0.444164	0.179703
-0.675303	-0.386124
0.202341	-0.185241
0.872697	1.449700
0.263975	0.110472
-0.156845	-0.228315
0.153355	-0.643996
-0.060367	-0.534864
-0.448293	-0.611090
2.709010	1.278330
1.091040	-0.533265
1.386260	1.299200
-2.082820	-2.902580
-2.892900	1.230340
2.277670	-0.583705
-1.879350	0.642117
0.984948	-0.307227
-0.917845	-0.086787
0.988101	-0.062815
-6.990440	1.878760
8.255670	0.332060
0.099225	0.711456
-0.638057	-0.514812
0.630809	-0.397946
0.108485	0.877912
-0.678545	-0.801641
-0.712106	-0.930176
0.064768	-0.679079
0.296339	0.862592
-0.531125	-0.495870
0.617571	1.228210
-0.280197	-0.594296
0.067779	0.683790
0.250605	0.466805
-1.063100	0.265490
0.177060	-1.445030
-1.269760	1.660970
-0.845309	-1.298850
-1.459220	-0.186287
0.581290	-0.950279
-0.449310	1.277710
0.128403	0.237096
-0.007895	0.330376
0.016901	-0.244906
0.546339	0.187769
0.087938	0.137212
-0.425749	-0.361088
0.067204	-0.150543
-0.325231	-0.118503
0.198745	0.021754
-0.153750	0.469990
-0.007392	0.201153
-0.372344	0.744349
-0.247124	0.349583
-0.458318	0.720421
0.345344	0.491526
0.579020	0.846452
-1.996030	1.254960
0.320136	-0.710401
-3.008150	0.447332
1.717410	3.191770
1.260810	-1.367610
-1.929090	2.195110
0.684332	-1.089110
-1.167800	0.520232
0.101907	-0.233745
-0.916744	0.992350
-3.338490	-8.468980
1.157970	12.896500
-1.155710	-0.024870
-0.615669	1.531360
0.900880	0.454113
0.660325	1.133160
0.341996	1.105620
0.623664	-1.073600
-0.530722	-0.881872
-3.638670	0.409155
-0.000623	-0.062538
-0.840644	0.614709
0.152256	-0.125243
-1.136590	-0.310281
-0.174864	-0.024246
-0.643037	0.742355
-0.252808	-0.275384
0.160438	1.517700
0.036796	-0.574759
-0.858710	0.238846
0.443394	0.908286
0.085961	0.777165
-0.197228	1.106930
0.731486	-0.173828
-0.413943	0.293742
-0.420255	-0.602507
-0.155035	-0.380972
-0.559523	0.912539
-0.199116	-0.212115
-0.230175	-0.069369
-0.319699	-0.077946
-0.161117	-0.058907
-0.450267	0.549836
0.219035	0.288848
0.183834	1.184030
0.704795	0.040162
-0.008448	-0.162656
-0.162430	0.024993
0.300932	0.770430
1.098150	0.428937
-1.485900	0.489842
0.533212	-2.104280
-0.413632	-0.592410
-0.364110	0.854969
-0.365899	-0.509416
-0.280622	-0.178447
-0.528326	-0.652534
0.444065	-0.366412
-0.843117	0.607663
0.022669	0.052969
0.469542	0.602107
-0.533718	-0.192840
-0.536000	0.527992
-0.140135	-1.003690
0.443023	1.123600
-0.167838	-0.753015
0.797630	0.233722
-1.040900	0.767997
-0.219993	-0.244775
-0.752146	0.523371
1.102310	-1.166600
-2.122440	-0.739329
0.363172	1.472910
-0.995163	1.184790
-0.122165	-0.358635
-0.314052	0.621078
0.364834	0.107865
-0.035307	-0.166144
0.033537	-0.707337
-0.296976	-0.746824
0.256357	1.522980
0.956003	-0.617320
-0.248417	0.935241
-0.329020	-1.071740
-0.407608	0.079291
-0.677024	0.376231
-0.969499	-0.033856
0.297974	-0.150873
-0.616838	-0.081619
0.125415	0.167839
0.997974	-1.933770
-1.658860	2.803870
0.236041	-0.665504
0.184976	-0.834022
-0.378533	-0.438659
-0.718644	-0.540739
-0.031051	-1.225550
0.517149	-1.009930
-0.061743	-0.496893
-1.366220	1.365460
0.938841	2.102720
-2.044260	-1.373910
0.710907	0.866088
-1.307650	-0.921382
-0.160698	0.233127
-0.730226	-0.119443
2.944420	-4.860160
-2.987080	7.819160
-0.037904	-1.151430
0.391445	-0.593001
-0.777810	-0.505408
-0.551801	-0.070057
0.682739	-1.041320
0.137513	-0.523388
-0.251497	-0.317085
-0.959540	0.922082
-1.469530	0.691019
0.668843	-1.262340
-0.130155	0.527220
-0.566031	-0.424335
-0.330598	0.140238
-0.261655	0.009404
1.107840	-0.978938
0.036003	1.366920
0.275022	0.743010
0.648826	-0.660437
0.350148	0.743200
0.482135	0.429796
-2.145420	-0.846871
1.740240	2.566860
-4.631140	-0.002953
5.431320	-3.255040
0.951297	0.330223
-2.058800	-1.841820
-1.003340	-1.459360
-0.453582	2.161810
1.358260	-0.159854
-1.174970	-0.071311
0.517588	-0.910104
-1.738290	0.407365
-0.776880	-0.726849
-0.339699	-0.877374
0.559214	-1.024970
0.669434	-0.069091
-1.485730	0.234770
0.471243	-0.849342
1.365180	0.904124
0.083064	-1.311820
0.096498	0.682905
0.400253	-1.435790
0.556254	0.769587
-0.367789	-1.133370
0.057286	-0.071180
-1.158330	0.538601
0.399700	0.281248
-0.809110	-0.121247
-0.150183	0.196863
-0.216150	-0.581941
-1.303470	-1.367860
-1.204550	1.358100
-0.452709	-0.323936
-0.965104	-0.653704
-0.065320	-0.117108
0.154623	0.378860
-0.203400	-0.053880
0.590063	0.054908
-0.365197	0.026283
0.120313	0.147952
-0.213442	-0.387446
-0.284977	-0.229562
-0.196483	0.027306
0.310669	-0.452359
-0.655293	-0.646323
0.226159	-0.787383
-0.229304	-0.181881
-0.075069	0.584489
-0.132507	0.091394
1.328220	-0.282514
-0.099328	0.368460
-0.523186	-0.248791
2.268960	1.596700
-1.021930	-2.075820
-0.796727	0.081343
0.681302	-0.028878
-0.503860	0.395153
-0.288434	-0.164831
1.590340	-0.218974
-1.064180	0.092186
-0.722552	-1.102720
-0.865269	0.856273
-0.035754	0.080779
-0.343090	-0.554689
1.018680	-0.085008
-1.935100	2.918960
-2.024740	-1.254570
1.192130	-2.331590
0.696095	0.813342
-0.689745	-1.236820
1.147600	1.487940
2.038740	-0.745933
0.933882	0.235299
1.637620	-0.104183
0.852589	0.530293
-1.387220	-0.594423
0.797632	0.671261
0.389551	0.896698
-0.094473	0.524249
-0.724972	0.816467
0.010347	-0.935021
1.125850	-0.824280
0.171054	0.125997
-1.015010	0.124398
-0.807468	-0.289077
1.152470	1.155270
-1.351480	-0.228237
0.710443	-0.197480
-0.146067	0.178618
-0.524070	-0.314881
-0.343941	0.627352
0.129451	-0.342616
-0.047778	0.635431
0.558199	0.672521
-0.958950	-0.700260
0.693835	-1.114490
-0.580082	0.145521
0.618251	0.344461
-0.245050	0.029285
0.152886	-0.339154
0.039167	-0.456588
-0.604240	0.207793
-0.113405	-0.123556
0.142585	0.206406
-0.217577	-0.095826
-0.081951	-0.114499
0.027640	-0.377895
-0.277957	0.400640
-0.346483	-0.003464
-0.305749	-0.445451
0.334978	1.608850
1.303030	-0.332332
0.274530	-0.081640
-0.231305	-0.179209
-0.185464	0.079843
-0.287497	-0.282385
-0.137633	0.205152
0.196838	-0.383269
-0.109988	-0.159554
-0.750198	0.432661
-0.223297	0.215079
-0.734472	-0.301951
-0.122081	0.145419
0.133113	-0.065031
0.009781	-0.664733
-0.413772	0.174630
-0.066200	0.488921
-0.472934	-0.749389
-2.865070	-0.898185
-1.328590	1.289270
-1.402120	-1.045710
1.951790	0.626564
-1.496710	-2.370220
1.687320	2.448170
-0.952440	-1.509340
0.206376	1.879990
1.487890	-0.339185
-0.755819	1.153290
-2.281050	-0.807304
2.230930	0.984743
-0.487696	-1.134200
-0.646876	0.288024
0.043026	0.228742
-0.298747	0.446481
-0.246482	-0.883511
-1.070210	1.286490
-0.319987	-1.949840
2.335290	1.101180
3.590740	2.245960
-5.266650	-2.359870
0.299982	-0.265087
-0.493740	0.635523
3.411890	0.210130
-0.322501	2.587890
0.415456	0.641294
-0.992483	-0.451329
0.218265	0.851201
0.381894	0.044559
0.251023	-0.689771
0.502738	0.424933
-2.833290	1.218570
1.060810	2.237120
-2.090230	1.125500
1.884510	-2.608380
-2.258110	-0.021346
2.015040	-0.917807
-1.602260	-0.546854
0.916289	0.688702
2.531300	-2.187750
-0.368105	2.897420
1.423840	-4.421960
-4.410420	7.504490
-0.176592	-0.146182
-0.540645	0.862228
0.886811	0.938454
0.236715	-0.627764
-0.138061	-1.682860
0.694562	-1.805350
0.175598	-0.127931
-0.911636	0.989420
-0.242533	-1.384370
1.254820	2.540080
3.179320	-1.935480
-7.757360	1.975920
0.009154	0.674661
-0.993364	0.481720
-0.577392	-0.622652
1.946470	0.963531
-0.396490	-0.789422
-0.350626	-0.267016
-0.347600	-0.624806
-0.545247	0.697880
1.673580	-2.450100
-5.901360	0.936681
-0.756105	-2.904210
4.184960	3.495900
-2.529250	0.555647
5.506000	-0.103421
1.748870	-0.443214
-3.175330	1.816140
-5.252280	1.251070
3.668100	-2.436200
-1.651290	2.804360
0.048638	-2.711140
0.699183	-1.867840
-1.074090	-1.114700
-1.503780	0.676319
-1.260950	-1.085680
0.216575	0.721790
0.609420	-0.503307
0.406983	-0.027453
-2.741070	-0.136025
-0.061662	0.017203
-0.832250	0.432895
0.041615	0.157207
-0.968540	0.104934
0.005733	-0.095456
-0.370114	0.584288
0.180865	0.022482
-0.508505	0.492079
-0.364834	-0.107865
0.035307	0.166144
-0.033537	0.707337
0.296976	0.746824
0.256357	1.522980
0.956003	-0.617320
-0.248417	0.935241
-0.329020	-1.071740
-0.407608	0.079291
-0.677024	0.376231
-0.969499	-0.033856
0.297974	-0.150873
-0.616838	-0.081619
0.125415	0.167839
0.997974	-1.933770
-1.658860	2.803870
-0.236041	0.665504
-0.184976	0.834022
0.378533	0.438659
0.718644	0.540739
-0.031051	-1.225550
0.517149	-1.009930
-0.061743	-0.496893
-1.366220	1.365460
0.938841	2.102720
-2.044260	-1.373910
0.710907	0.866088
-1.307650	-0.921382
-0.160698	0.233127
-0.730226	-0.119443
2.944420	-4.860160
-2.987080	7.819160
0.037904	1.151430
-0.391445	0.593001
0.777810	0.505408
0.551801	0.070057
0.682739	-1.041320
0.137513	-0.523388
-0.251497	-0.317085
-0.959540	0.922082
-1.469530	0.691019
0.668843	-1.262340
-0.130155	0.527220
-0.566031	-0.424335
-0.330598	0.140238
-0.261655	0.009404
1.107840	-0.978938
0.036003	1.366920
-0.275022	-0.743010
-0.648826	0.660437
-0.350148	-0.743200
-0.482135	-0.429796
-2.145420	-0.846871
1.740240	2.566860
-4.631140	-0.002953
5.431320	-3.255040
0.951297	0.330223
-2.058800	-1.841820
-1.003340	-1.459360
-0.453582	2.161810
1.358260	-0.159854
-1.174970	-0.071311
0.517588	-0.910104
-1.738290	0.407365
0.776880	0.726849
0.339699	0.877374
-0.559214	1.024970
-0.669434	0.069091
-1.485730	0.234770
0.471243	-0.849342
1.365180	0.904124
0.083064	-1.311820
0.096498	0.682905
0.400253	-1.435790
0.556254	0.769587
-0.367789	-1.133370
0.057286	-0.071180
-1.158330	0.538601
0.399700	0.281248
-0.809110	-0.121247
0.150183	-0.196863
0.216150	0.581941
1.303470	1.367860
1.204550	-1.358100
-0.452709	-0.323936
-0.965104	-0.653704
-0.065320	-0.117108
0.154623	0.378860
-0.203400	-0.053880
0.590063	0.054908
-0.365197	0.026283
0.120313	0.147952
-0.213442	-0.387446
-0.284977	-0.229562
-0.196483	0.027306
0.310669	-0.452359
0.655293	0.646323
-0.226159	0.787383
0.229304	0.181881
0.075069	-0.584489
-0.132507	0.091394
1.328220	-0.282514
-0.099328	0.368460
-0.523186	-0.248791
2.268960	1.596700
-1.021930	-2.075820
-0.796727	0.081343
0.681302	-0.028878
-0.503860	0.395153
-0.288434	-0.164831
1.590340	-0.218974
-1.064180	0.092186
0.722552	1.102720
0.865269	-0.856273
0.035754	-0.080779
0.343090	0.554689
1.018680	-0.085008
-1.935100	2.918960
-2.024740	-1.254570
1.192130	-2.331590
0.696095	0.813342
-0.689745	-1.236820
1.147600	1.487940
2.038740	-0.745933
0.933882	0.235299
1.637620	-0.104183
0.852589	0.530293
-1.387220	-0.594423
-0.797632	-0.671261
-0.389551	-0.896698
0.094473	-0.524249
0.724972	-0.816467
0.010347	-0.935021
1.125850	-0.824280
0.171054	0.125997
-1.015010	0.124398
-0.807468	-0.289077
1.152470	1.155270
-1.351480	-0.228237
0.710443	-0.197480
-0.146067	0.178618
-0.524070	-0.314881
-0.343941	0.627352
0.129451	-0.342616
0.047778	-0.635431
-0.558199	-0.672521
0.958950	0.700260
-0.693835	1.114490
-0.580082	0.145521
0.618251	0.344461
-0.245050	0.029285
0.152886	-0.339154
0.039167	-0.456588
-0.604240	0.207793
-0.113405	-0.123556
0.142585	0.206406
-0.217577	-0.095826
-0.081951	-0.114499
0.027640	-0.377895
-0.277957	0.400640
0.346483	0.003464
0.305749	0.445451
-0.334978	-1.608850
-1.303030	0.332332
0.274530	-0.081640
-0.231305	-0.179209
-0.185464	0.079843
-0.287497	-0.282385
-0.137633	0.205152
0.196838	-0.383269
-0.109988	-0.159554
-0.750198	0.432661
-0.223297	0.215079
-0.734472	-0.301951
-0.122081	0.145419
0.133113	-0.065031
-0.009781	0.664733
0.413772	-0.174630
0.066200	-0.488921
0.472934	0.749389
-2.865070	-0.898185
-1.328590	1.289270
-1.402120	-1.045710
1.951790	0.626564
-1.496710	-2.370220
1.687320	2.448170
-0.952440	-1.509340
0.206376	1.879990
1.487890	-0.339185
-0.755819	1.153290
-2.281050	-0.807304
2.230930	0.984743
0.487696	1.134200
0.646876	-0.288024
-0.043026	-0.228742
0.298747	-0.446481
-0.246482	-0.883511
-1.070210	1.286490
-0.319987	-1.949840
2.335290	1.101180
3.590740	2.245960
-5.266650	-2.359870
0.299982	-0.265087
-0.493740	0.635523
3.411890	0.210130
-0.322501	2.587890
0.415456	0.641294
-0.992483	-0.451329
-0.218265	-0.851201
-0.381894	-0.044559
-0.251023	0.689771
-0.502738	-0.424933
-2.833290	1.218570
1.060810	2.237120
-2.090230	1.125500
1.884510	-2.608380
-2.258110	-0.021346
2.015040	-0.917807
-1.602260	-0.546854
0.916289	0.688702
2.531300	-2.187750
-0.368105	2.897420
1.423840	-4.421960
-4.410420	7.504490
0.176592	0.146182
0.540645	-0.862228
-0.886811	-0.938454
-0.236715	0.627764
-0.138061	-1.682860
0.694562	-1.805350
0.175598	-0.127931
-0.911636	0.989420
-0.242533	-1.384370
1.254820	2.540080
3.179320	-1.935480
-7.757360	1.975920
0.009154	0.674661
-0.993364	0.481720
-0.577392	-0.622652
1.946470	0.963531
0.396490	0.789422
0.350626	0.267016
0.347600	0.624806
0.545247	-0.697880
1.673580	-2.450100
-5.901360	0.936681
-0.756105	-2.904210
4.184960	3.495900
-2.529250	0.555647
5.506000	-0.103421
1.748870	-0.443214
-3.175330	1.816140
-5.252280	1.251070
3.668100	-2.436200
-1.651290	2.804360
0.048638	-2.711140
-0.699183	1.867840
1.074090	1.114700
1.503780	-0.676319
1.260950	1.085680
0.216575	0.721790
0.609420	-0.503307
0.406983	-0.027453
-2.741070	-0.136025
-0.061662	0.017203
-0.832250	0.432895
0.041615	0.157207
-0.968540	0.104934
0.005733	-0.095456
-0.370114	0.584288
0.180865	0.022482
-0.508505	0.492079
0.058640	-0.988479
0.314782	-0.158955
-0.096171	-0.880367
-0.934549	-0.285294
1.093180	-1.644650
-0.806695	-1.017340
-1.630310	0.846486
1.186370	0.136870
-0.050761	1.005770
0.197922	-0.786791
0.319942	0.496621
-0.920086	0.037156
-0.357218	0.421583
-0.327586	-0.256234
1.431950	2.443240
-2.417430	-1.454690
0.077195	1.243630
0.794080	0.097820
-0.321248	-0.214151
-0.007602	-0.106683
-0.197616	0.858318
0.666181	0.598072
-0.780543	-0.171804
0.694261	-0.864854
-0.100392	-0.532845
-0.653458	0.626402
-0.179575	-0.395160
-0.108428	-0.164906
-0.191398	-0.570244
0.441631	-0.039020
-0.255315	0.422171
-0.705349	0.063351
2.106480	1.454700
-1.580760	3.843540
-1.426650	2.357230
-3.929030	-1.684300
0.099095	0.099460
0.280079	-0.694817
-0.036889	0.018230
-1.009830	1.032940
-0.000946	0.019178
0.029183	0.337996
0.068192	0.040465
-0.964851	-1.057940
0.000947	0.014362
-0.160022	0.419688
0.023765	0.007599
-0.189805	-0.072544
-0.412094	-0.918155
-0.725863	-1.071640
0.970506	-0.750582
-0.454983	0.405508
-0.686479	0.960452
-0.096668	1.300020
-1.019680	-0.707387
2.861830	0.647694
0.655870	-0.166648
-1.050520	-1.673590
0.334968	-0.796346
0.227982	0.938019
0.246572	-0.394834
-0.347636	0.648596
-0.118954	-0.181461
-0.942023	0.349361
0.545712	1.077310
-0.287988	-0.367921
0.686809	-0.663423
0.110127	0.046054
-2.312480	-0.260383
0.612945	0.603983
-0.815893	1.081650
0.153270	-0.258368
-0.776856	-0.052221
0.185596	-0.652157
-1.671870	0.065683
1.421040	-0.076527
2.414300	1.414320
-3.558360	-0.280772
2.404050	-0.412493
-4.308430	-0.391732
-1.509520	-0.811484
-0.111400	1.739980
0.707273	0.730530
-1.269280	1.027760
0.426867	0.601436
-0.439933	0.140682
0.093008	-0.413263
-1.012860	-0.489285
-0.148664	0.127161
-0.507598	-0.340431
0.013060	-0.273840
-1.086340	0.992253
-0.127593	0.100062
0.300107	0.456993
-0.095401	0.045614
-0.400812	0.167778
-0.822457	-0.829488
-1.463300	-1.479260
-0.976946	1.737070
1.313190	-0.690322
0.301612	-0.590563
0.007982	0.047367
0.055204	0.146978
-1.515860	-0.547927
-0.254676	0.028208
0.656868	0.528325
-0.027792	-0.088245
-0.521704	-0.032746
-0.171291	-0.208411
1.525740	-0.153384
-0.031172	0.081331
0.035046	0.093466
1.063820	-0.615173
0.314809	0.553534
-0.102964	-1.028600
-0.677409	-0.911638
-2.236580	0.877089
0.995074	-0.357967
-0.431695	-0.379268
0.820900	0.346362
0.484693	-0.443643
-2.625490	0.139608
-0.267150	-0.604056
-0.009892	0.238576
-0.007483	-0.221060
-0.846076	0.700640
1.200820	-5.140170
-4.705080	9.315460
-0.265432	-1.090800
0.653921	0.038483
-0.086768	0.724513
0.580716	-0.014721
-0.183329	-0.197006
0.237998	-0.049931
-0.319675	0.181243
-0.427156	-0.017408
-0.118169	-0.428178
-0.337012	0.565757
-0.418543	-0.056958
-0.063762	0.058067
-0.296885	0.908443
-1.286300	-0.564642
0.897061	-1.285740
-1.413970	2.041790
-0.058640	0.988479
-0.314782	0.158955
0.096171	0.880367
0.934549	0.285294
1.093180	-1.644650
-0.806695	-1.017340
-1.630310	0.846486
1.186370	0.136870
-0.050761	1.005770
0.197922	-0.786791
0.319942	0.496621
-0.920086	0.037156
-0.357218	0.421583
-0.327586	-0.256234
1.431950	2.443240
-2.417430	-1.454690
-0.077195	-1.243630
-0.794080	-0.097820
0.321248	0.214151
0.007602	0.106683
-0.197616	0.858318
0.666181	0.598072
-0.780543	-0.171804
0.694261	-0.864854
-0.100392	-0.532845
-0.653458	0.626402
-0.179575	-0.395160
-0.108428	-0.164906
-0.191398	-0.570244
0.441631	-0.039020
-0.255315	0.422171
-0.705349	0.063351
-2.106480	-1.454700
1.580760	-3.843540
1.426650	-2.357230
3.929030	1.684300
0.099095	0.099460
0.280079	-0.694817
-0.036889	0.018230
-1.009830	1.032940
-0.000946	0.019178
0.029183	0.337996
0.068192	0.040465
-0.964851	-1.057940
0.000947	0.014362
-0.160022	0.419688
0.023765	0.007599
-0.189805	-0.072544
0.412094	0.918155
0.725863	1.071640
-0.970506	0.750582
0.454983	-0.405508
-0.686479	0.960452
-0.096668	1.300020
-1.019680	-0.707387
2.861830	0.647694
0.655870	-0.166648
-1.050520	-1.673590
0.334968	-0.796346
0.227982	0.938019
0.246572	-0.394834
-0.347636	0.648596
-0.118954	-0.181461
-0.942023	0.349361
-0.545712	-1.077310
0.287988	0.367921
-0.686809	0.663423
-0.110127	-0.046054
-2.312480	-0.260383
0.612945	0.603983
-0.815893	1.081650
0.153270	-0.258368
-0.776856	-0.052221
0.185596	-0.652157
-1.671870	0.065683
1.421040	-0.076527
2.414300	1.414320
-3.558360	-0.280772
2.404050	-0.412493
-4.308430	-0.391732
1.509520	0.811484
0.111400	-1.739980
-0.707273	-0.730530
1.269280	-1.027760
0.426867	0.601436
-0.439933	0.140682
0.093008	-0.413263
-1.012860	-0.489285
-0.148664	0.127161
-0.507598	-0.340431
0.013060	-0.273840
-1.086340	0.992253
-0.127593	0.100062
0.300107	0.456993
-0.095401	0.045614
-0.400812	0.167778
0.822457	0.829488
1.463300	1.479260
0.976946	-1.737070
-1.313190	0.690322
0.301612	-0.590563
0.007982	0.047367
0.055204	0.146978
-1.515860	-0.547927
-0.254676	0.028208
0.656868	0.528325
-0.027792	-0.088245
-0.521704	-0.032746
-0.171291	-0.208411
1.525740	-0.153384
-0.031172	0.081331
0.035046	0.093466
-1.063820	0.615173
-0.314809	-0.553534
0.102964	1.028600
0.677409	0.911638
-2.236580	0.877089
0.995074	-0.357967
-0.431695	-0.379268
0.820900	0.346362
0.484693	-0.443643
-2.625490	0.139608
-0.267150	-0.604056
-0.009892	0.238576
-0.007483	-0.221060
-0.846076	0.700640
1.200820	-5.140170
-4.705080	9.315460
0.265432	1.090800
-0.653921	-0.038483
0.086768	-0.724513
-0.580716	0.014721
-0.183329	-0.197006
0.237998	-0.049931
-0.319675	0.181243
-0.427156	-0.017408
-0.118169	-0.428178
-0.337012	0.565757
-0.418543	-0.056958
-0.063762	0.058067
-0.296885	0.908443
-1.286300	-0.564642
0.897061	-1.285740
-1.413970	2.041790
0.289632	1.104200
0.315113	-0.239519
0.550264	0.162017
-0.257263	0.350616
0.476540	-0.727572
1.114320	-0.762727
0.628203	-0.012406
-1.588890	0.696857
-1.024280	-0.234215
0.595394	0.514292
-0.825242	-0.268542
-0.034791	0.358860
-0.729567	0.173248
-0.427465	-0.419847
-24.155800	-13.352800
8.299170	6.147170
-0.926137	-0.580851
-1.046890	0.840226
-0.534996	-1.768310
1.080870	-0.334055
-0.687712	-0.214693
0.401921	-0.206007
0.025732	0.142820
-0.199264	0.148478
-0.369878	0.416546
-0.083324	-1.743220
-0.098495	0.117476
0.244314	0.296235
-0.023117	0.087734
-0.572188	0.087874
-0.213785	0.079470
-0.412535	0.075475
-0.121704	0.030815
-0.698503	0.324905
0.421592	0.606031
-0.206190	-1.059630
0.568527	-4.221660
-3.148620	-2.158950
0.473304	-1.547350
0.335152	1.943140
1.312760	-1.923500
0.967728	2.741500
1.749090	-1.743490
-4.827430	1.850290
2.401660	1.296230
0.233361	1.056070
-0.917663	-0.966884
2.177770	-0.506424
-0.677542	-0.993913
0.501184	0.151653
-0.578265	0.913464
0.078496	0.281362
-0.705346	0.362709
0.659322	-0.145372
-0.118893	0.443287
-0.223669	-0.101742
-0.212299	-0.170965
-0.629317	0.142190
-0.584444	0.221502
0.020995	-0.328435
-0.722787	1.113540
-0.520932	-1.425660
1.289980	0.870961
-1.836390	-0.988372
-0.289632	-1.104200
-0.315113	0.239519
-0.550264	-0.162017
0.257263	-0.350616
0.476540	-0.727572
1.114320	-0.762727
0.628203	-0.012406
-1.588890	0.696857
-1.024280	-0.234215
0.595394	0.514292
-0.825242	-0.268542
-0.034791	0.358860
-0.729567	0.173248
-0.427465	-0.419847
-24.155800	-13.352800
8.299170	6.147170
0.926137	0.580851
1.046890	-0.840226
0.534996	1.768310
-1.080870	0.334055
-0.687712	-0.214693
0.401921	-0.206007
0.025732	0.142820
-0.199264	0.148478
-0.369878	0.416546
-0.083324	-1.743220
-0.098495	0.117476
0.244314	0.296235
-0.023117	0.087734
-0.572188	0.087874
-0.213785	0.079470
-0.412535	0.075475
0.121704	-0.030815
0.698503	-0.324905
-0.421592	-0.606031
0.206190	1.059630
0.568527	-4.221660
-3.148620	-2.158950
0.473304	-1.547350
0.335152	1.943140
1.312760	-1.923500
0.967728	2.741500
1.749090	-1.743490
-4.827430	1.850290
2.401660	1.296230
0.233361	1.056070
-0.917663	-0.966884
2.177770	-0.506424
0.677542	0.993913
-0.501184	-0.151653
0.578265	-0.913464
-0.078496	-0.281362
-0.705346	0.362709
0.659322	-0.145372
-0.118893	0.443287
-0.223669	-0.101742
-0.212299	-0.170965
-0.629317	0.142190
-0.584444	0.221502
0.020995	-0.328435
-0.722787	1.113540
-0.520932	-1.425660
1.289980	0.870961
-1.836390	-0.988372
-0.558632	0.376761
0.367227	0.064879
-0.416281	-1.328260
-0.670953	0.183317
-0.006017	0.108435
0.288222	0.034290
-0.109523	0.158453
-0.512645	-0.216102
-0.281969	0.110595
0.181414	-0.118001
-0.276402	-0.132329
-0.059016	0.461795
-0.248289	0.115803
-0.367222	-0.372969
-0.328110	0.124248
0.428473	0.497149
-0.024286	-1.324400
-1.000250	-0.598161
0.871164	-0.515829
0.119661	0.519666
-1.042210	0.645213
-0.144929	0.650655
-0.102787	-0.444948
0.722187	0.394112
0.317388	-0.434835
-1.253620	-0.236090
0.119170	-0.304772
0.331125	0.124029
0.223239	-0.290066
-0.007201	0.606652
0.122360	-0.175604
-0.766287	0.500613
0.148477	-1.472010
0.586565	0.437068
0.977989	0.141547
0.451372	0.148539
-0.448469	0.796639
-0.026631	0.220679
-0.165996	-0.383079
0.618443	-0.207973
-0.257379	-0.249409
-0.168145	-0.355174
0.060104	-0.697372
-0.090543	0.094078
0.636847	0.034730
0.365465	1.498190
-0.104302	-0.079190
-0.311734	0.332364
0.211355	0.841419
0.618206	0.360344
0.757251	0.045063
-0.185217	1.033620
-0.013132	-0.773356
1.388690	-0.379491
-0.038138	0.452970
-0.980558	-0.582215
-0.589009	-1.006830
0.322317	0.886990
-0.457893	-0.665803
0.251930	-0.281230
-0.281356	-0.026429
-0.493355	-0.487215
-2.343930	-0.734655
0.187253	1.107070
0.558632	-0.376761
-0.367227	-0.064879
0.416281	1.328260
0.670953	-0.183317
-0.006017	0.108435
0.288222	0.034290
-0.109523	0.158453
-0.512645	-0.216102
-0.281969	0.110595
0.181414	-0.118001
-0.276402	-0.132329
-0.059016	0.461795
-0.248289	0.115803
-0.367222	-0.372969
-0.328110	0.124248
0.428473	0.497149
0.024286	1.324400
1.000250	0.598161
-0.871164	0.515829
-0.119661	-0.519666
-1.042210	0.645213
-0.144929	0.650655
-0.102787	-0.444948
0.722187	0.394112
0.317388	-0.434835
-1.253620	-0.236090
0.119170	-0.304772
0.331125	0.124029
0.223239	-0.290066
-0.007201	0.606652
0.122360	-0.175604
-0.766287	0.500613
-0.148477	1.472010
-0.586565	-0.437068
-0.977989	-0.141547
-0.451372	-0.148539
-0.448469	0.796639
-0.026631	0.220679
-0.165996	-0.383079
0.618443	-0.207973
-0.257379	-0.249409
-0.168145	-0.355174
0.060104	-0.697372
-0.090543	0.094078
0.636847	0.034730
0.365465	1.498190
-0.104302	-0.079190
-0.311734	0.332364
-0.211355	-0.841419
-0.618206	-0.360344
-0.757251	-0.045063
0.185217	-1.033620
-0.013132	-0.773356
1.388690	-0.379491
-0.038138	0.452970
-0.980558	-0.582215
-0.589009	-1.006830
0.322317	0.886990
-0.457893	-0.665803
0.251930	-0.281230
-0.281356	-0.026429
-0.493355	-0.487215
-2.343930	-0.734655
0.187253	1.107070
-0.121244	-0.885866
-0.753910	-0.110681
0.186314	0.883717
-0.404387	0.277486
-0.335547	0.812432
0.849709	0.169926
-0.403713	0.340590
-0.319659	-0.961827
-0.308919	-0.268098
-0.395240	0.496368
-0.303599	-0.141889
-0.107308	-0.017264
-0.736759	-0.037882
0.061295	-0.721025
-0.702392	0.659739
0.116382	-0.415786
0.219965	0.698279
-0.220280	-0.742900
-0.214795	0.356272
-0.387019	-0.006637
1.463260	0.815610
-1.319950	-1.745940
3.188370	-2.249520
-2.231610	3.686920
-0.121081	-1.073970
-0.044529	2.020230
1.101970	0.436249
-2.130830	-1.214710
-1.438550	0.763870
0.547432	0.580992
-0.835610	-0.631126
1.459330	0.533487
-0.553741	-0.578682
-0.626347	0.402023
-0.065724	-0.681719
0.162064	0.801205
0.904121	0.484597
-0.681699	-0.146764
0.850714	-0.438488
-0.137234	0.520295
-0.433008	0.058424
0.355357	0.302320
0.056460	-0.875945
-1.846420	0.356127
-0.299584	0.627464
-0.063716	0.304389
-0.673475	0.115723
0.314653	0.624348
0.121244	0.885866
0.753910	0.110681
-0.186314	-0.883717
0.404387	-0.277486
-0.335547	0.812432
0.849709	0.169926
-0.403713	0.340590
-0.319659	-0.961827
-0.308919	-0.268098
-0.395240	0.496368
-0.303599	-0.141889
-0.107308	-0.017264
-0.736759	-0.037882
0.061295	-0.721025
-0.702392	0.659739
0.116382	-0.415786
-0.219965	-0.698279
0.220280	0.742900
0.214795	-0.356272
0.387019	0.006637
1.463260	0.815610
-1.319950	-1.745940
3.188370	-2.249520
-2.231610	3.686920
-0.121081	-1.073970
-0.044529	2.020230
1.101970	0.436249
-2.130830	-1.214710
-1.438550	0.763870
0.547432	0.580992
-0.835610	-0.631126
1.459330	0.533487
0.553741	0.578682
0.626347	-0.402023
0.065724	0.681719
-0.162064	-0.801205
0.904121	0.484597
-0.681699	-0.146764
0.850714	-0.438488
-0.137234	0.520295
-0.433008	0.058424
0.355357	0.302320
0.056460	-0.875945
-1.846420	0.356127
-0.299584	0.627464
-0.063716	0.304389
-0.673475	0.115723
0.314653	0.624348
0.226411	0.853705
0.464993	-0.162993
0.232850	0.651147
-0.138030	0.187143
0.789373	-0.315820
0.189573	-1.104210
1.352090	-0.603236
-2.025400	1.384450
-0.780949	1.202500
0.569955	-1.071660
-0.513215	0.423648
-0.329678	0.118682
-0.684292	0.339559
-0.212239	-0.102527
-4.484080	0.174308
2.059480	-1.330430
-0.226411	-0.853705
-0.464993	0.162993
-0.232850	-0.651147
0.138030	-0.187143
0.789373	-0.315820
0.189573	-1.104210
1.352090	-0.603236
-2.025400	1.384450
-0.780949	1.202500
0.569955	-1.071660
-0.513215	0.423648
-0.329678	0.118682
-0.684292	0.339559
-0.212239	-0.102527
-4.484080	0.174308
2.059480	-1.330430
-0.294598	0.441648
-1.184520	-0.625436
-0.294814	1.317900
-0.058322	-0.361588
0.413526	0.700472
-0.084746	0.265137
0.559140	0.312055
-1.759400	1.122020
-0.246697	-0.095811
-0.293029	0.395621
-0.495605	0.167890
-0.276293	0.964753
0.081030	0.486108
-0.890690	0.422421
-0.120191	-0.107965
-0.260109	0.569833
0.294598	-0.441648
1.184520	0.625436
0.294814	-1.317900
0.058322	0.361588
0.413526	0.700472
-0.084746	0.265137
0.559140	0.312055
-1.759400	1.122020
-0.246697	-0.095811
-0.293029	0.395621
-0.495605	0.167890
-0.276293	0.964753
0.081030	0.486108
-0.890690	0.422421
-0.120191	-0.107965
-0.260109	0.569833
-0.061623	1.094940
-1.031480	-0.290975
0.259339	0.654292
-0.262882	0.605054
0.507208	0.642884
-0.030681	-0.574187
-0.643673	-2.720250
2.082340	-2.805340
0.047996	-0.206524
-0.658206	0.771461
-0.412144	0.112568
-0.091667	-0.137482
-0.253417	0.222320
-0.286091	0.361053
0.139945	-0.314626
0.018042	0.711449
0.061623	-1.094940
1.031480	0.290975
-0.259339	-0.654292
0.262882	-0.605054
0.507208	0.642884
-0.030681	-0.574187
-0.643673	-2.720250
2.082340	-2.805340
0.047996	-0.206524
-0.658206	0.771461
-0.412144	0.112568
-0.091667	-0.137482
-0.253417	0.222320
-0.286091	0.361053
0.139945	-0.314626
0.018042	0.711449
0.183984	0.994964
1.013250	1.105090
0.639073	-0.675522
-0.900518	0.697144
0.368057	-0.442628
0.451975	0.288655
0.338489	0.438821
-2.267640	-1.289790
-0.314874	-0.068314
0.138711	0.340145
-0.129340	-0.201138
-0.140906	-0.076509
-0.218277	-0.059360
0.344425	-0.453785
-0.112208	0.193739
-0.083511	0.227189
-0.183984	-0.994964
-1.013250	-1.105090
-0.639073	0.675522
0.900518	-0.697144
0.368057	-0.442628
0.451975	0.288655
0.338489	0.438821
-2.267640	-1.289790
-0.314874	-0.068314
0.138711	0.340145
-0.129340	-0.201138
-0.140906	-0.076509
-0.218277	-0.059360
0.344425	-0.453785
-0.112208	0.193739
-0.083511	0.227189
