-0.543908	            0.839145
-0.393908	            0.919150
-0.410944	            0.911660
 0.999934	           -0.011477
 0.918541	            0.395326
-0.191570	            0.981479
 0.965430	            0.260662
 0.999644	           -0.026671
-0.085560	           -0.996333
-0.838634	            0.544695
-0.935721	            0.352742
-0.140143	            0.990131
 0.931108	           -0.364743
 0.933065	           -0.359709
 0.774086	           -0.633080
 0.430621	           -0.902533
-0.191935	           -0.981408
 0.339307	            0.940676
-0.433393	            0.901205
 0.999351	           -0.036009
-0.626622	            0.779323
 0.926006	           -0.377509
-0.850653	            0.525727
-0.935267	            0.353944
 0.738209	            0.674572
 0.779499	            0.626404
-0.005098	           -0.999987
 0.877942	            0.478767
 0.582537	            0.812804
 0.247395	           -0.968915
 0.973309	            0.229497
 0.474697	            0.880149
 0.987727	            0.156187
 0.555100	            0.831783
