0.680375	0.0
-0.211234	0.0
0.566198	0.0
0.59688		0.0
0.823295	0.0
-0.604897	0.0
-0.329554	0.0
0.536459	0.0
-0.444451	0.0
0.10794		0.0
-0.0452059	0.0
0.257742	0.0
-0.270431	0.0
0.0268018	0.0
0.904459	0.0