0.264533	0.782690
0.764762	-0.365285
-0.409621	0.682639
-1.137770	-1.483620
-0.242287	-0.136107
0.136050	-1.543320
0.333890	0.997176
-0.716446	0.014713
-0.752707	0.508990
3.254860	-0.359990
1.315680	0.374304
1.757390	1.165950
-0.177784	0.346373
-0.910175	0.583545
-0.229728	1.201790
0.994573	-0.151602
0.730295	0.302712
0.927612	-0.950380
0.910593	0.059621
0.679222	-1.200350
-1.056740	0.212098
-0.320521	0.493030
-0.377023	-0.858003
0.045653	-0.361599
-3.155970	0.286933
0.479565	-2.177460
2.754600	0.344257
0.057057	1.009740
-0.827928	-0.630062
-0.397245	0.058352
0.019958	-0.645454
-0.191979	0.661818
-0.383809	0.066479
-0.601623	1.075010
1.673950	-0.303991
-1.562540	0.762842
-0.229297	-1.226060
-0.746908	2.072170
1.120380	-0.383040
-0.291170	0.627521
-0.343354	1.572250
0.498513	-0.438187
-0.500254	-0.359585
0.857211	0.701496
-0.904950	-0.011329
-0.289482	-0.943238
-0.242421	-0.009849
0.515123	-0.830570
0.719605	-0.225013
0.364943	0.148706
-0.470781	0.515140
0.960269	-0.583194
-1.050440	-0.594466
1.359080	0.814840
0.555019	-0.282587
0.263508	0.491950
0.015445	1.482260
-0.311943	0.460476
0.639013	0.185069
0.581491	-0.695375
-0.767139	-0.871151
0.716501	-0.541522
-0.682246	0.204499
0.658774	1.357690
-1.338830	0.706923
1.079740	-1.063370
-0.293685	0.608579
1.236300	-0.070360
1.041100	0.443945
-0.033807	1.230640
-0.570049	0.722881
-0.666479	0.768955
-0.066480	-0.197801
-0.694861	0.437509
-0.204270	1.240590
1.449100	-1.518130
-1.591870	0.035996
-0.798360	-0.442003
-0.385785	0.381906
0.347150	-0.981642
-1.214100	0.096263