0.346966	0.0
0.345016	0.0
-0.851672	0.0
0.961799	0.0
0.685522	0.0
0.748932	0.0
0.535389	0.0
0.061589	0.0
-0.478632	0.0
0.379511	0.0
-0.828223	0.0
-0.605996	0.0
-0.868176	0.0
0.473184	0.0
-0.993327	0.0
-0.631448	0.0
0.538643	0.0
-0.918677	0.0
-0.157905	0.0